{
  "$schema": "https://go.kicad.org/pcm/schemas/v1",
  "name": "SparkFun KiCad Panelizer",
  "description": "SparkFun's simple PCB panelizer for KiCad 7",
  "description_full": "Converts a single PCB into a panel of multiple PCBs with v-scores in between",
  "identifier": "com.github.sparkfun.SparkFunKiCadPanelizer",
  "type": "plugin",
  "author": {
    "name": "SparkFun",
    "contact": {
      "github": "https://github.com/sparkfun",
      "web": "https://sparkfun.com",
      "twitter": "https://twitter.com/sparkfun"
    }
  },
  "maintainer": {
    "name": "SparkFun",
    "contact": {
      "github": "https://github.com/sparkfun",
      "web": "https://sparkfun.com",
      "twitter": "https://twitter.com/sparkfun"
    }
  },
  "license": "MIT",
  "resources": {
    "homepage": "https://github.com/sparkfun/SparkFun_KiCad_Panelizer"
  },
  "versions": [
    {
      "version": "1.0.1",
      "status": "stable",
      "kicad_version": "7.0",
      "download_url": "https://github.com/sparkfun/SparkFun_KiCad_Panelizer/releases/download/v1.0.1/SparkFunKiCadPanelizer-1.0.1-pcm.zip",
      "download_sha256": "9567015c8aaa68e1b6e0f8ed90fec89189b6f6ea74042912656d8ba76fb5c8e0",
      "download_size": 21655,
      "install_size": 85813
    },
    {
      "version": "1.1.0",
      "status": "stable",
      "kicad_version": "7.0",
      "download_url": "https://github.com/sparkfun/SparkFun_KiCad_Panelizer/releases/download/v1.1.0/SparkFunKiCadPanelizer-1.1.0-pcm.zip",
      "download_sha256": "0ab982585b102ec0ce2e32296f661b1a7aefff909e2f26c7872afe981c8bafc5",
      "download_size": 24659,
      "install_size": 100001
    },
    {
      "version": "1.1.1",
      "status": "stable",
      "kicad_version": "7.0",
      "download_url": "https://github.com/sparkfun/SparkFun_KiCad_Panelizer/releases/download/v1.1.1/SparkFunKiCadPanelizer-1.1.1-pcm.zip",
      "download_sha256": "d91ad40eb859901f1f05379b5f89f74187cdcb26523bed2dc44ce1a584baa106",
      "download_size": 24894,
      "install_size": 101150
    },
    {
      "version": "1.1.2",
      "status": "stable",
      "kicad_version": "7.0",
      "download_url": "https://github.com/sparkfun/SparkFun_KiCad_Panelizer/releases/download/v1.1.2/SparkFunKiCadPanelizer-1.1.2-pcm.zip",
      "download_sha256": "b2c735bcc341fff955a4a8db1da4183251ea2a775810e629ff2384d12a8322fe",
      "download_size": 24910,
      "install_size": 101173
    }
  ]
}
